{
    "_comment_1": "type: (number); Puede ser negativo y decimal",
    "nps": 20.5,

    "_comment_2": "type: (number); Debe estar entre 0 y 100, puede ser decimal",
    "typificationPercent": 40.5,

    "_comment_3": "GRAFICA COMENTARIOS VALIDOS - Array; type: (object); Contiene la cantidad de comentarios válidos",
    "arrCommentsData": [
        {
            "name": "Enero",
            "y": 56,
            "drilldown": "Enero"
        },
        {
            "name": "Febrero",
            "y": 100,
            "drilldown": "Febrero"
        }
    ],

    "_comment_4": "GRAFICA COMENTARIOS VALIDOS - Array; type: (object); Contiene la cantidad de comentarios válidos por segmento del NPS (Promotores, Detractores y Neutros)",
    "arrSegmentosNPS": [
        {
            "name": "Enero",
            "id": "Enero",
            "data": [
                {
                    "name": "Promotores", "y": 20, "color":"#396BB4"
                },
                {
                    "name": "Neutros", "y": 6, "color":"#F7C913"
                },
                {
                    "name": "Detractores", "y": 30, "color":"#CA2400"
                }
            ]
        },
        {
            "name": "Febrero",
            "id": "Febrero",
            "data": [
                {
                    "name": "Promotores", "y": 60, "color":"#396BB4"
                },
                {
                    "name": "Neutros", "y": 10, "color":"#F7C913"
                },
                {
                    "name": "Detractores", "y": 30, "color":"#CA2400"
                }
            ]
        }
    ],

    "_comment_5": "Array objects; Cada posición contiene un Journey con nombre y Cantidad de menciones en el período de tiempo seleccionado",
    "arrJourneys": [{
            "name": "Uso y Consumo",
            "weight": "3"
        },
        {
            "name": "Desconexión",
            "weight": "17"
        },
        {
            "name": "Facturación",
            "weight": "9"
        },
        {
            "name": "Soporte Técnico",
            "weight": "23"
        },
        {
            "name": "Servicio",
            "weight": "15"
        },
        {
            "name": "Instalo/Activo",
            "weight": "24"
        }
    ]
}