{
    "_comment_1": "Array objects; Top 50; Cada posición contiene una Palabra con nombre y Cantidad de menciones en el período de tiempo seleccionado",
    "arrCommonWords": [{
            "name": "Estabilidad general",
            "weight": "3"
        },
        {
            "name": "Servicio",
            "weight": "17"
        },
        {
            "name": "tarifa",
            "weight": "9"
        },
        {
            "name": "Calidad Internet",
            "weight": "23"
        },
        {
            "name": "Tiempo de solución",
            "weight": "15"
        },
        {
            "name": "velocidad",
            "weight": "24"
        },
        {
            "name": "Modelo de actuación",
            "weight": "29"
        },
        {
            "name": "Facturación",
            "weight": "3"
        },
        {
            "name": "Grilla canales",
            "weight": "25"
        },
        {
            "name": "intencion de retiro",
            "weight": "18"
        },
        {
            "name": "Calidad TV",
            "weight": "3"
        },
        {
            "name": "Agenda Oportuna",
            "weight": "6"
        },
        {
            "name": "Costo de los servicios",
            "weight": "19"
        },
        {
            "name": "Cobertura de servicios",
            "weight": "16"
        },
        {
            "name": "No Me Contestan",
            "weight": "6"
        },
        {
            "name": "calidad llamada",
            "weight": "22"
        },
        {
            "name": "Calidad Telefonia",
            "weight": "1"
        },
        {
            "name": "imagen ",
            "weight": "12"
        },
        {
            "name": "Sin Servicios Tigo",
            "weight": "20"
        }
    ]
}